Propensity Score Analysis
…
```
## # A tibble: 1,000 x 4
##        x1      x2 treatment outcome
##     <dbl>   <dbl>     <dbl>   <dbl>
##  1  1.60   1.14           1   2.54 
##  2 -0.619  0.163          0   0.544
##  3  1.56   1.82           0   0.207
##  4  2.33   2.27           1   1.53 
##  5  1.92   2.44           1   2.07 
##  6  1.28   0.880          1   1.43 
##  7  2.89   2.98           1   1.36 
##  8  0.820  0.518          1   1.90 
##  9  0.618 -0.0382         1   2.75 
## 10 -1.11   1.01           1   4.25 
## # … with 990 more rows
```
…
---
# Propensity Score Weights

```r
dat <- dat %>% mutate(
	ate_weight = psa::calculate_ps_weights(treatment, ps, estimand = 'ATE'),
	att_weight = psa::calculate_ps_weights(treatment, ps, estimand = 'ATT'),
	atc_weight = psa::calculate_ps_weights(treatment, ps, estimand = 'ATC'),
	atm_weight = psa::calculate_ps_weights(treatment, ps, estimand = 'ATM')
)
dat
```

```
## # A tibble: 1,000 x 9
##        x1      x2 treatment outcome    ps ate_weight att_weight atc_weight atm_weight
##     <dbl>   <dbl>     <dbl>   <dbl> <dbl>      <dbl>      <dbl>      <dbl>      <dbl>
##  1  1.60   1.14           1   2.54  0.744       1.34      1         0.343      0.343 
##  2 -0.619  0.163          0   0.544 0.243       1.32      0.321     1          0.321 
##  3  1.56   1.82           0   0.207 0.873       7.86      6.86      1          1     
##  4  2.33   2.27           1   1.53  0.944       1.06      1         0.0593     0.0593
##  5  1.92   2.44           1   2.07  0.946       1.06      1         0.0565     0.0565
##  6  1.28   0.880          1   1.43  0.646       1.55      1         0.549      0.549 
##  7  2.89   2.98           1   1.36  0.982       1.02      1         0.0186     0.0186
##  8  0.820  0.518          1   1.90  0.484       2.06      1         1.06       1     
##  9  0.618 -0.0382         1   2.75  0.297       3.36      1         2.36       1     
## 10 -1.11   1.01           1   4.25  0.435       2.30      1         1.30       1     
## # … with 990 more rows
```
…
